<?xml version="1.0" encoding="utf-8"?>
<!-- Generator: Adobe Illustrator 19.1.1, SVG Export Plug-In . SVG Version: 6.00 Build 0)  -->
<svg version="1.1" id="Слой_1" xmlns="http://www.w3.org/2000/svg" xmlns:xlink="http://www.w3.org/1999/xlink" x="0px" y="0px"
	 viewBox="0 0 63 52" style="enable-background:new 0 0 63 52;" xml:space="preserve">
<style type="text/css">
	.st0{fill:#A99655;}
</style>
<rect x="10.5" y="23.4" class="st0" width="44.5" height="4.5"/>
<rect x="4.7" y="13.2" transform="matrix(0.7071 -0.7071 0.7071 0.7071 -4.612 19.6198)" class="st0" width="33.4" height="4.5"/>
<rect x="19.2" y="19.1" transform="matrix(0.7071 -0.7071 0.7071 0.7071 -19.0787 25.6121)" class="st0" width="4.5" height="33.4"/>
</svg>
